Revisiting The Office: A text analysis · Casual Inference
…
         Email

    © 2020. All rights reserved. 

  Revisiting The Office: A text analysis

  Wed, Feb 5, 2020

I’m casually rewatching The Office as my I need something uninvolved to half-occupy my brain for 20 minutes show. Its been almost seven years since the last episode aired, but I still quote it with my closest friends and family – such was its personal and cultural significance. It’s aged like high school: I look back with fondness at the familiar jokes, but there’s also a sense that it was a time we have outgrown. I believe showrunner Mike Schur (also, Dwight’s cousin Mose) has gone on to write far more artistically significant shows.

Exploring the scripts

Recently the schrute package was released, containing scripts of every episode of The Office. I decided to dig into the text. I started by cleaning up the data a little, producing the following data frame. In the following analyses, I explore some patterns in the data that might (or might not) comport with the average viewer’s memory or perception of the show.

## # A tibble: 55,130 x 4
## # Groups:   season_episode [186]
##    season_episode speech character text                                    
##    <chr>           <int> <chr>     <chr>                                   
##  1 s01e01              1 Michael   All right Jim. Your quarterlies look ve…
##  2 s01e01              2 Jim       Oh, I told you. I couldn't close it. So…
##  3 s01e01              3 Michael   So you've come to the master for guidan…
##  4 s01e01              4 Jim       Actually, you called me in here, but ye…
##  5 s01e01              5 Michael   All right. Well, let me show you how it…
##  6 s01e01              6 Michael   So that's the way it's done.            
##  7 s01e01              7 Michael   I've, uh, I've been at Dunder Mifflin f…
##  8 s01e01              8 Pam       Well. I don't know.                     
##  9 s01e01              9 Michael   "If you think she's cute now, you shoul…
## 10 s01e01             10 Pam       What?                                   
## # … with 55,120 more rows
…
